pipeline/wave.vcd
$version Generated by VerilatedVcd $end
$date Tue Jan 14 20:11:10 2025
 $end
$timescale   1ps $end

 $scope module TOP $end
  $var wire  1 9! clk $end
  $var wire  1 :! reset_b $end
  $scope module pipeline_cpu $end
   $var wire 32 @! DMEM_ADDR_WIDTH [31:0] $end
   $var wire 32 ?! DMEM_DEPTH [31:0] $end
   $var wire 32 @! IMEM_ADDR_WIDTH [31:0] $end
   $var wire 32 ?! IMEM_DEPTH [31:0] $end
   $var wire 32 A! REG_WIDTH [31:0] $end
   $var wire  4 $! alu_control [3:0] $end
   $var wire 32 '! alu_fwd_in1 [31:0] $end
   $var wire 32 (! alu_fwd_in2 [31:0] $end
   $var wire 32 )! alu_in1 [31:0] $end
   $var wire 32 *! alu_in2 [31:0] $end
   $var wire  2 0 alu_op [1:0] $end
   $var wire 32 h alu_result [31:0] $end
   $var wire  2 . alu_src [1:0] $end
   $var wire  4 - branch [3:0] $end
   $var wire  1 g branch_taken $end
   $var wire  1 -! bu_sign $end
   $var wire  1 .! bu_unsigned_comparison $end
   $var wire  1 ,! bu_zero $end
   $var wire  1 9! clk $end
   $var wire 32 /! comp_result [31:0] $end
   $var wire 10 0! dmem_addr [9:0] $end
   $var wire 32 1! dmem_din [31:0] $end
   $var wire 32 2! dmem_dout [31:0] $end
   $var wire 276 i ex [275:0] $end
   $var wire  1 !! flush_by_branch $end
   $var wire  2 %! forward_a [1:0] $end
   $var wire  2 &! forward_b [1:0] $end
   $var wire  3 4 funct3 [2:0] $end
   $var wire  7 3 funct7 [6:0] $end
   $var wire 96 ) id [95:0] $end
   $var wire  1 "! id_flush $end
   $var wire  1 ~ id_stall $end
   $var wire  1 <! if_flush $end
   $var wire  1 ~ if_stall $end
   $var wire 10 ' imem_addr [9:0] $end
   $var wire 12 > imm12 [11:0] $end
   $var wire 32 < imm32 [31:0] $end
   $var wire 32 @ imm32_J [31:0] $end
   $var wire 32 ? imm32_U [31:0] $end
   $var wire 32 = imm32_branch [31:0] $end
   $var wire 32 ( inst [31:0] $end
   $var wire  1 8 isAUIPC $end
   $var wire  1 9 isCompare $end
   $var wire  1 : isJAL $end
   $var wire  1 ; isJALR $end
   $var wire  1 7 isLUI $end
   $var wire 176 r mem [175:0] $end
   $var wire  1 / mem_read $end
   $var wire  1 / mem_to_reg $end
   $var wire  1 1 mem_write $end
   $var wire  1 5 notsigned $end
   $var wire  7 , opcode [6:0] $end
   $var wire 32 $ pc_curr [31:0] $end
   $var wire 32 ;! pc_next [31:0] $end
   $var wire 32 & pc_next_JAL [31:0] $end
   $var wire 32 h pc_next_JALR [31:0] $end
   $var wire 32 e pc_next_branch [31:0] $end
   $var wire 32 % pc_next_plus4 [31:0] $end
   $var wire  2 f pc_next_sel [1:0] $end
   $var wire  1 d pc_write $end
   $var wire  5 C rd [4:0] $end
   $var wire 32 #! rd_din [31:0] $end
   $var wire  1 2 reg_write $end
   $var wire  1 :! reset_b $end
   $var wire  5 A rs1 [4:0] $end
   $var wire 32 =! rs1_dout [31:0] $end
   $var wire  5 B rs2 [4:0] $end
   $var wire 32 >! rs2_dout [31:0] $end
   $var wire  2 6 size [1:0] $end
   $var wire  1 ~ stall_by_load_use $end
   $var wire 32 +! sub_for_branch [31:0] $end
   $var wire 171 x wb [170:0] $end
   $scope module u_alu_0 $end
    $var wire 32 A! REG_WIDTH [31:0] $end
    $var wire  4 $! alu_control [3:0] $end
    $var wire 32 )! in1 [31:0] $end
    $var wire 32 *! in2 [31:0] $end
    $var wire 32 h result [31:0] $end
   $upscope $end
   $scope module u_dmem_0 $end
    $var wire 32 @! DMEM_ADDR_WIDTH [31:0] $end
    $var wire 32 ?! DMEM_DEPTH [31:0] $end
    $var wire 10 0! addr [9:0] $end
    $var wire  1 9! clk $end
    $var wire 32 1! din [31:0] $end
    $var wire 32 2! dout [31:0] $end
    $var wire  1 5! mem_read $end
    $var wire  1 6! mem_write $end
    $var wire  1 7! notsigned $end
    $var wire  2 8! size [1:0] $end
   $upscope $end
   $scope module u_imem_0 $end
    $var wire 32 @! IMEM_ADDR_WIDTH [31:0] $end
    $var wire 32 ?! IMEM_DEPTH [31:0] $end
    $var wire 10 ' addr [9:0] $end
    $var wire 32 ( dout [31:0] $end
    $scope module unnamedblk1 $end
     $var wire 32 # i [31:0] $end
    $upscope $end
   $upscope $end
   $scope module u_regfile_0 $end
    $var wire 32 A! REG_WIDTH [31:0] $end
    $var wire  1 9! clk $end
    $var wire  5 3! rd [4:0] $end
    $var wire 32 #! rd_din [31:0] $end
    $var wire  1 4! reg_write $end
    $var wire 32 D rf_data(0) [31:0] $end
    $var wire 32 E rf_data(1) [31:0] $end
    $var wire 32 N rf_data(10) [31:0] $end
    $var wire 32 O rf_data(11) [31:0] $end
    $var wire 32 P rf_data(12) [31:0] $end
    $var wire 32 Q rf_data(13) [31:0] $end
    $var wire 32 R rf_data(14) [31:0] $end
    $var wire 32 S rf_data(15) [31:0] $end
    $var wire 32 T rf_data(16) [31:0] $end
    $var wire 32 U rf_data(17) [31:0] $end
    $var wire 32 V rf_data(18) [31:0] $end
    $var wire 32 W rf_data(19) [31:0] $end
    $var wire 32 F rf_data(2) [31:0] $end
    $var wire 32 X rf_data(20) [31:0] $end
    $var wire 32 Y rf_data(21) [31:0] $end
    $var wire 32 Z rf_data(22) [31:0] $end
    $var wire 32 [ rf_data(23) [31:0] $end
    $var wire 32 \ rf_data(24) [31:0] $end
    $var wire 32 ] rf_data(25) [31:0] $end
    $var wire 32 ^ rf_data(26) [31:0] $end
    $var wire 32 _ rf_data(27) [31:0] $end
    $var wire 32 ` rf_data(28) [31:0] $end
    $var wire 32 a rf_data(29) [31:0] $end
    $var wire 32 G rf_data(3) [31:0] $end
    $var wire 32 b rf_data(30) [31:0] $end
    $var wire 32 c rf_data(31) [31:0] $end
    $var wire 32 H rf_data(4) [31:0] $end
    $var wire 32 I rf_data(5) [31:0] $end
    $var wire 32 J rf_data(6) [31:0] $end
    $var wire 32 K rf_data(7) [31:0] $end
    $var wire 32 L rf_data(8) [31:0] $end
    $var wire 32 M rf_data(9) [31:0] $end
    $var wire  5 A rs1 [4:0] $end
    $var wire 32 =! rs1_dout [31:0] $end
    $var wire  5 B rs2 [4:0] $end
    $var wire 32 >! rs2_dout [31:0] $end
   $upscope $end
  $upscope $end
 $upscope $end
$enddefinitions $end


#0
b00000000000000000000010000000000 #
b00000000000000000000000000000000 $
b00000000000000000000000000000100 %
b00000000000000000000000000000000 &
b0000000000 '
b00000000000000000000001000000011 (
b000000000000000000000000000000000000000000000000000000000000000000000000000000000000000000000000 )
b0000000 ,
b0000 -
b00 .
0/
b00 0
01
02
b0000000 3
b000 4
05
b00 6
07
08
09
0:
0;
b00000000000000000000000000000000 <
b00000000000000000000000000000000 =
b000000000000 >
b00000000000000000000000000000000 ?
b00000000000000000000000000000000 @
b00000 A
b00000 B
b00000 C
b00000000000000000000000000000000 D
b00000000000000000000000000000001 E
b00000000000000000000000000000010 F
b00000000000000000000000000000011 G
b00000000000000000000000000000100 H
b00000000000000000000000000000101 I
b00000000000000000000000000000110 J
b00000000000000000000000000000111 K
b00000000000000000000000000000000 L
b00000000000000000000000000000000 M
b00000000000000000000000000000000 N
b00000000000000000000000000000000 O
b00000000000000000000000000000000 P
b00000000000000000000000000000000 Q
b00000000000000000000000000000000 R
b00000000000000000000000000000000 S
b00000000000000000000000000000000 T
b00000000000000000000000000000000 U
b00000000000000000000000000000000 V
b00000000000000000000000000000000 W
b00000000000000000000000000000000 X
b00000000000000000000000000000000 Y
b00000000000000000000000000000000 Z
b00000000000000000000000000000000 [
b00000000000000000000000000000000 \
b00000000000000000000000000000000 ]
b00000000000000000000000000000000 ^
b00000000000000000000000000000000 _
b00000000000000000000000000000000 `
b00000000000000000000000000000000 a
b00000000000000000000000000000000 b
b00000000000000000000000000000000 c
1d
b00000000000000000000000000000000 e
b00 f
0g
b00000000000000000000000000000000 h
b000000000000000000000000000000000000000000000000000000000000000000000000000000000000000000000000000000000000000000000000000000000000000000000000000000000000000000000000000000000000000000000000000000000000000000000000000000000000000000000000000000000000000000000000000000000000 i
b00000000000000000000000000000000000000000000000000000000000000000000000000000000000000000000000000000000000000000000000000000000000000000000000000000000000000000000000000000000 r
b000000000000000000000000000000000000000000000000000000000000000000000000000000000000000000000000000000000000000000000000000000000000000000000000000000000000000000000000000 x
0~
0!!
0"!
b00000000000000000000000000000000 #!
b0010 $!
b00 %!
b00 &!
b00000000000000000000000000000000 '!
b00000000000000000000000000000000 (!
b00000000000000000000000000000000 )!
b00000000000000000000000000000000 *!
b00000000000000000000000000000000 +!
1,!
0-!
0.!
b00000000000000000000000000000000 /!
b0000000000 0!
b00000000000000000000000000000000 1!
b00000000000000000000000000000000 2!
b00000 3!
04!
05!
06!
07!
b00 8!
09!
0:!
b00000000000000000000000000000100 ;!
0<!
b00000000000000000000000000000000 =!
b00000000000000000000000000000000 >!
b00000000000000000000010000000000 ?!
b00000000000000000000000000001010 @!
b00000000000000000000000000100000 A!
#5
19!
#10
09!
#15
b00000000000000000000000000000100 $
b00000000000000000000000000001000 %
b0000000001 '
b00000000010000000001001010000011 (
b000000000000000000000000000000000000000000000000000000100000001100000000000000000000000000000100 )
b0000011 ,
b11 .
1/
12
b00100 C
19!
1:!
b00000000000000000000000000001000 ;!
#20
09!
#25
b00000000000000000000000000001000 $
b00000000000000000000000000001100 %
b00000000000000000001000000001000 &
b0000000010 '
b00000000000000000100001100000011 (
b000000000000000000000000000001000000000001000000000100101000001100000000000000000000000000001000 )
b001 4
b01 6
b00000000000000000000000000000100 <
b00000000000000000000000000001000 =
b000000000100 >
b00000000010000000001000000000000 ?
b00000000000000000001000000000100 @
b00100 B
b00101 C
0d
b000000000000000000000000000000000000000000000000000000000000000000000000000000000000000000000000000000000000000000000000000000000000011000000000000001100100000000000001001100000000000000000000000000000000000000000000000000000000000000000000000000000000000000000000000000000100 i
1~
19!
b00000000000000000000000000001100 ;!
b00000000000000000000000000000100 >!
#30
09!
#35
1d
b000000000000000000000000000000000000000000000000000000000000000000000000000000000000000000000000000000000000000000000000000000000000000000000000000000000000000000000000000000000000000000000000000000000000000000000000000000000000000000000000000000000000000000000000000000000000 i
b00000000000000000000000000000000000000000000000000000000000000001000100110000000000000000000000000000010000000000000000000000000000000000000000000000000000000000000000000000000 r
0~
b11111111111111111111111111111111 2!
15!
19!
#40
09!
#45
b00000000000000000000000000001100 $
b00000000000000000000000000010000 %
b00000000000000000100000000001000 &
b0000000011 '
b00000000010000000101001110000011 (
b000000000000000000000000000010000000000000000000010000110000001100000000000000000000000000001100 )
b100 4
15
b00 6
b00000000000000000000000000000000 <
b00000000000000000000000000000000 =
b000000000000 >
b00000000000000000100000000000000 ?
b00000000000000000100000000000000 @
b00000 B
b00110 C
b00000000000000000000000000001100 e
b00000000000000000000000000000100 h
b000000000000000000000000000001000000000000000000000000000000000000000000000000000000000000000100000000000000000000000000000001000000011001000000000001100100000000100001011100000000010000000001000000000000000000000000000000010000000001000000001000000000000000000000000000001000 i
b00000000000000000000000000000000000000000000000000000000000000000000000000000000000000000000000000000000000000000000000000000000000000000000000000000000000000000000000000000000 r
b000000000000000000000000000000001111111111111111111111111111111100100110000000000000000000000000000000100000000000000000000000000000000000000000000000000000000000000000000 x
b11111111111111111111111111111111 #!
b01 &!
b11111111111111111111111111111111 (!
b00000000000000000000000000000100 *!
b00000000000000000000000000000001 +!
0,!
1.!
b00000000000000000000000000000000 2!
b00100 3!
14!
05!
19!
b00000000000000000000000000010000 ;!
b00000000000000000000000000000000 >!
#50
09!
#55
b00000000000000000000000000010000 $
b00000000000000000000000000010100 %
b00000000000000000101000000010000 &
b0000000100 '
b00000000010000000000000000100011 (
b000000000000000000000000000011000000000001000000010100111000001100000000000000000000000000010000 )
b101 4
b01 6
b00000000000000000000000000000100 <
b00000000000000000000000000001000 =
b000000000100 >
b00000000010000000101000000000000 ?
b00000000000000000101000000000100 @
b00100 B
b00111 C
b11111111111111111111111111111111 H
b00000000000000000000000000001000 e
b00000000000000000000000000000000 h
b000000000000000000000000000010000000000000000000000000000000000000000000000000000000000000000000000000000000000000000000000000000000011100000000000001100100000000000001101100000000000000000100000000000000000000000000000001000000000000000000000100000000000000000000000000001100 i
b00000000000000000000000000000100000000000000000000000000000001001000101110000000000000000000000000000100000100000000000000000000000000000000000000000000010000000001000000000000 r
b000000000000000000000000000000000000000000000000000000000000000000000000000000000000000000000000000000000000000000000000000000000000000000000000000000000000000000000000000 x
b00000000000000000000000000000000 #!
b00 &!
b00000000000000000000000000000000 (!
b00000000000000000000000000000000 *!
b00000000000000000000000000000000 +!
1,!
0.!
b0000000001 0!
b00000000000000000000000000000100 1!
b11111111111111111111111111111111 2!
b00000 3!
04!
15!
b01 8!
19!
b00000000000000000000000000010100 ;!
b11111111111111111111111111111111 >!
#60
09!
#65
b00000000000000000000000000010100 $
b00000000000000000000000000011000 %
b00000000000000000000000000010100 &
b0000000101 '
b00000000010100000001000000100011 (
b000000000000000000000000000100000000000001000000000000000010001100000000000000000000000000010100 )
b0100011 ,
0/
11
02
b000 4
05
b00 6
b00000000000000000000000000000000 <
b00000000000000000000000000000000 =
b000000000000 >
b00000000010000000000000000000000 ?
b00000000000000000000000000000100 @
b00000 C
b00000000000000000000000000010100 e
b00000000000000000000000000000100 h
b000000000000000000000000000011000000000000000000000000000000000011111111111111111111111111111111000000000000000000000000000001000000011101000000000001100100000000100001111100000000010000000101000000000000000000000000000001010000000001000000001100000000000000000000000000010000 i
b00000000000000000000000000000000000000000000000000000000000000001000110110000000000000000000000000000110010000000000000000000000000000000000000000000000000000000100000000000000 r
b000000000000000000000000000001001111111111111111111111111111111100101110000000000000000000000000000001000000000000000000000000000000000000000000000010000000001000000000000 x
b11111111111111111111111111111111 #!
b11111111111111111111111111111111 (!
b00000000000000000000000000000100 *!
b00000000000000000000000000000001 +!
0,!
1.!
b0000000000 0!
b00000000000000000000000000000000 1!
b00000000000000000000000011111111 2!
b00101 3!
14!
17!
b00 8!
19!
b00000000000000000000000000011000 ;!
#70
09!
#75
b00000000000000000000000000011000 $
b00000000000000000000000000011100 %
b00000000000000000001100000011000 &
b0000000110 '
b00000000100000000010010000000011 (
b000000000000000000000000000101000000000001010000000100000010001100000000000000000000000000011000 )
b001 4
b01 6
b00000000010100000001000000000000 ?
b00000000000000000001100000000100 @
b00101 B
b11111111111111111111111111111111 I
b00000000000000000000000000010000 e
b00000000000000000000000000000000 h
b000000000000000000000000000100000000000000000000000000000000000011111111111111111111111111111111000000000000000000000000000000000100011000000000000001100010000000100000000000000000010000000000000000000000000000000000000000000000000001000000000000000000000000000000000000010100 i
b00000000000000000000000000000100111111111111111111111111111111111000111110000000000000000000000000001000010100000000000000000000000000000000000000000000010000000101000000000000 r
b000000000000000000000000000000000000000000000000000000001111111100110110000000000000000000000000000001100000000000000000000000000000000000000000000000000000100000000000000 x
b00000000000000000000000011111111 #!
b00000000000000000000000000000000 *!
b0000000001 0!
b11111111111111111111111111111111 1!
b00000000000000001111111111111111 2!
b00110 3!
b01 8!
19!
b00000000000000000000000000011100 ;!
#80
09!
#85
b00000000000000000000000000011100 $
b00000000000000000000000000100000 %
b00000000000000000010000000100000 &
b0000000111 '
b00000000100000110001010010110011 (
b000000000000000000000000000110000000000010000000001001000000001100000000000000000000000000011100 )
b0000011 ,
1/
01
12
b010 4
b10 6
b00000000000000000000000000001000 <
b00000000000000000000000000010000 =
b000000001000 >
b00000000100000000010000000000000 ?
b00000000000000000010000000001000 @
b01000 B
b01000 C
b00000000000000000000000011111111 J
b00000000000000000000000000010100 e
b000000000000000000000000000101000000000000000000000000000000000011111111111111111111111111111111000000000000000000000000000000000100011001000000000001100010000000101000000000000000010100000001000000000000000000000000000000011000000001000000001000000000000000000000000000011000 i
b00000000000000000000000000000000111111111111111111111111111111110100000000000000000000000000000000001010000000000000000000000000000000000000000000000000010000000000000000000000 r
b000000000000000000000000000001000000000000000000111111111111111100111110000000000000000000000000000010000000000000000000000000000000000000000000000010000000101000000000000 x
b00000000000000001111111111111111 #!
b0000000000 0!
b00000000000000000000000000000000 2!
b00111 3!
05!
16!
07!
b00 8!
19!
b00000000000000000000000000100000 ;!
b00000000000000000000000000000000 >!
#90
09!
#95
b00000000000000000000000000100000 $
b00000000000000000000000000100100 %
b00000000000000110001000000100100 &
b0000001000 '
b00000000001100110001010100010011 (
b000000000000000000000000000111000000000010000011000101001011001100000000000000000000000000100000 )
b0110011 ,
b00 .
0/
b10 0
b001 4
b01 6
b00000000100000110001000000000000 ?
b00000000000000110001000000001000 @
b00110 A
b01001 C
b00000000000000001111111111111111 K
0d
b00000000000000000000000000101000 e
b00000000000000000000000000001000 h
b000000000000000000000000000110000000000000000000000000000000000000000000000000000000000000000000000000000000000000000000000010000000011010000000000001100100000001000010001100000000100000000010000000000000000000000000000000100000000010000000010000000000000000000000000000011100 i
b00000000000000000000000000000000111111111111111111111111111111110100000000000000000000000000000000001100000100000000000000000000000000000000000000000000010100000001000000000000 r
b000000000000000000000000000000000000000000000000000000000000000000000000000000000000000000000000000010100000000000000000000000000000000000000000000010000000000000000000000 x
1~
b00000000000000000000000000000000 #!
b00000000000000000000000000000000 (!
b00000000000000000000000000001000 *!
b00000000000000000000000000000000 +!
1,!
0.!
b00000 3!
04!
b01 8!
19!
b00000000000000000000000000100100 ;!
b00000000000000000000000011111111 =!
#100
09!
#105
1d
b00000000000000000000000000000000 e
b00000000000000000000000000000000 h
b000000000000000000000000000000000000000000000000000000000000000000000000000000000000000000000000000000000000000000000000000000000000000000000000000000000000000000000000000000000000000000000000000000000000000000000000000000000000000000000000000000000000000000000000000000000000 i
b00000000000000000000000000001000000000000000000000000000000000001001000110000000000000000000000000001110001000000000000000000000000000000000000000000000100000000010000000000000 r
b000000000000000000000000000000000000000000000000000000000000000000000000000000000000000000000000000011000000000000000000000000000000000000000000000010100000001000000000000 x
0~
b00000000000000000000000000000000 *!
b0000000010 0!
b00000000000000000000000000000000 1!
b00000000000000000000000000000010 2!
15!
06!
b10 8!
19!
#110
09!
#115
b00000000000000000000000000100100 $
b00000000000000000000000000101000 %
b00000000000000110001100000100010 &
b0000001001 '
b00000000100000110101010110110011 (
b000000000000000000000000001000000000000000110011000101010001001100000000000000000000000000100100 )
b0010011 ,
b11 .
b00000000000000000000000000000011 <
b00000000000000000000000000000110 =
b000000000011 >
b00000000001100110001000000000000 ?
b00000000000000110001100000000010 @
b00011 B
b01010 C
b00000000000000000000000000101100 e
b00000000000000000000001111111100 h
b000000000000000000000000000111000000000000000000000000001111111100000000000000000000000000000000000000000000000000000000000010000110011001000000000000010000011001000010011000000000100000110001000000000000000000000000001100010000000010000000001000000000000000000000000000100000 i
b00000000000000000000000000000000000000000000000000000000000000000000000000000000000000000000000000000000000000000000000000000000000000000000000000000000000000000000000000000000 r
b000000000000000000000000000010000000000000000000000000000000001001000110000000000000000000000000000011100000000000000000000000000000000000000000000100000000010000000000000 x
b00000000000000000000000000000010 #!
b0111 $!
b01 &!
b00000000000000000000000011111111 '!
b00000000000000000000000000000010 (!
b00000000000000000000000011111111 )!
b00000000000000000000000000000010 *!
b00000000000000000000000011111101 +!
0,!
b0000000000 0!
b00000000000000000000000000000000 2!
b01000 3!
14!
05!
b00 8!
19!
b00000000000000000000000000101000 ;!
b00000000000000000000000000000011 >!
#120
09!
#125
b00000000000000000000000000101000 $
b00000000000000000000000000101100 %
b00000000000000110101000000101100 &
b0000001010 '
b00000000000100110101011000010011 (
b000000000000000000000000001001000000000010000011010101011011001100000000000000000000000000101000 )
b0110011 ,
b00 .
b101 4
b00000000000000000000000000001000 <
b00000000000000000000000000010000 =
b000000001000 >
b00000000100000110101000000000000 ?
b00000000000000110101000000001000 @
b01000 B
b01011 C
b00000000000000000000000000000010 L
b00000000000000000000000000100110 e
b00000000000000000000011111111000 h
b000000000000000000000000001000000000000000000000000000001111111100000000000000000000000000000011000000000000000000000000000000110010011001000000000001110000011000011010101000000000001100110001000000000000000000000000001100011000000000100000001000000000000000000000000000100100 i
b00000000000000000000001111111100000000000000000000000000000000000001001100000000000000000000000000010000000100000000000000000000000000000000000000000000100000110001000000000000 r
b000000000000000000000000000000000000000000000000000000000000000000000000000000000000000000000000000000000000000000000000000000000000000000000000000000000000000000000000000 x
b00000000000000000000000000000000 #!
b00 &!
b00000000000000000000000000000011 (!
b00000000000000000000000000000011 *!
b00000000000000000000000011111100 +!
b0011111111 0!
b00000 3!
04!
b01 8!
19!
b00000000000000000000000000101100 ;!
b00000000000000000000000000000010 >!
#130
09!
#135
b00000000000000000000000000101100 $
b00000000000000000000000000110000 %
b00000000000000110101100000101000 &
b0000001011 '
b01000000100000101101011010110011 (
b000000000000000000000000001010000000000000010011010101100001001100000000000000000000000000101100 )
b0010011 ,
b11 .
b00000000000000000000000000000001 <
b00000000000000000000000000000010 =
b000000000001 >
b00000000000100110101000000000000 ?
b00000000000000110101100000000000 @
b00001 B
b01100 C
b00000000000000000000000000110100 e
b00000000000000000000000000111111 h
b000000000000000000000000001001000000000000000000000000001111111100000000000000000000000000000010000000000000000000000000000010000110011101000000000000010000011001000010111000000000100000110101000000000000000000000000001101010000000010000000001000000000000000000000000000101000 i
b00000000000000000000011111111000000000000000000000000000000000110001010100000000000000000000000000010010000100000000000000000000000000000000000000000000001100110001000000000000 r
b000000000000000000000011111111000000000000000000000000000000000001001100000000000000000000000000000100000000000000000000000000000000000000000000000100000110001000000000000 x
b00000000000000000000001111111100 #!
b1001 $!
b00000000000000000000000000000010 (!
b00000000000000000000000000000010 *!
b00000000000000000000000011111101 +!
b0111111110 0!
b00000000000000000000000000000011 1!
b01001 3!
14!
19!
b00000000000000000000000000110000 ;!
b00000000000000000000000000000001 >!
#140
09!
#145
b00000000000000000000000000110000 $
b00000000000000000000000000110100 %
b00000000000000101101010000110100 &
b0000001100 '
b01000000001000101101011100010011 (
b000000000000000000000000001011000100000010000010110101101011001100000000000000000000000000110000 )
b0110011 ,
b00 .
b0100000 3
b00000000000000000000010000001000 <
b00000000000000000000100000010000 =
b010000001000 >
b01000000100000101101000000000000 ?
b00000000000000101101010000001000 @
b00101 A
b01000 B
b01101 C
b00000000000000000000001111111100 M
b00000000000000000000000000101010 e
b00000000000000000000000001111111 h
b000000000000000000000000001010000000000000000000000000001111111100000000000000000000000000000001000000000000000000000000000000010010011101000000000001110000011000001011001000000000000100110101000000000000000000000000001101011000000000000000001000000000000000000000000000101100 i
b00000000000000000000000000111111000000000000000000000000000000100001011100000000000000000000000000010100000100000000000000000000000000000000000000000000100000110101000000000000 r
b000000000000000000000111111110000000000000000000000000000000000001010100000000000000000000000000000100100000000000000000000000000000000000000000000001100110001000000000000 x
b00000000000000000000011111111000 #!
b00000000000000000000000000000001 (!
b00000000000000000000000000000001 *!
b00000000000000000000000011111110 +!
b0000001111 0!
b00000000000000000000000000000010 1!
b01010 3!
19!
b00000000000000000000000000110100 ;!
b11111111111111111111111111111111 =!
b00000000000000000000000000000010 >!
#150
09!
#155
b00000000000000000000000000110100 $
b00000000000000000000000000111000 %
b00000000000000101101010000110010 &
b0000001101 '
b11101111111111111111011110110111 (
b000000000000000000000000001100000100000000100010110101110001001100000000000000000000000000110100 )
b0010011 ,
b11 .
b00000000000000000000010000000010 <
b00000000000000000000100000000100 =
b010000000010 >
b01000000001000101101000000000000 ?
b00000000000000101101010000000010 @
b00010 B
b01110 C
b00000000000000000000011111111000 N
b00000000000000000000100000111100 e
b11111111111111111111111111111111 h
b000000000000000000000000001011001111111111111111111111111111111100000000000000000000000000000010000000000000000000000100000010000110011101010000000000010000010101000011011001000000100000101101000000000000000000000000001011010100000010000000001000000000000000000000000000110000 i
b00000000000000000000000001111111000000000000000000000000000000010001100100000000000000000000000000010110000100000000000000000000000000000000000000000000000100110101000000000000 r
b000000000000000000000000001111110000000000000000000000000000000001011100000000000000000000000000000101000000000000000000000000000000000000000000000100000110101000000000000 x
b00000000000000000000000000111111 #!
b1011 $!
b11111111111111111111111111111111 '!
b00000000000000000000000000000010 (!
b11111111111111111111111111111111 )!
b00000000000000000000000000000010 *!
b11111111111111111111111111111101 +!
1-!
b00000000000000000000000000000001 /!
b0000011111 0!
b00000000000000000000000000000001 1!
b01011 3!
19!
b00000000000000000000000000111000 ;!
#160
09!
#165
b00000000000000000000000000111000 $
b00000000000000000000000000111100 %
b11111111111111111111111100110010 &
b0000001110 '
b01000000000000000000100000010111 (
b000000000000000000000000001101001110111111111111111101111011011100000000000000000000000000111000 )
b0110111 ,
b01 .
b00 0
b1110111 3
b111 4
b11 6
17
b11111111111111111111111011111111 <
b11111111111111111111110111111110 =
b111011111111 >
b11101111111111111111000000000000 ?
b11111111111111111111111011111110 @
b11111 A
b11111 B
b01111 C
b00000000000000000000000000111111 O
b00000000000000000000100000110100 e
b000000000000000000000000001100001111111111111111111111111111111100000000000000000000000000000010000000000000000000000100000000100010011101010000000001110000010100010011101001000000001000101101000000000000000000000000001011010100000000100000001000000000000000000000000000110100 i
b11111111111111111111111111111111000000000000000000000000000000100001101100000000000000000000000000011000000100000000000000000000000000000000001001000000100000101101000000000000 r
b000000000000000000000000011111110000000000000000000000000000000001100100000000000000000000000000000101100000000000000000000000000000000000000000000000100110101000000000000 x
b00000000000000000000000001111111 #!
b00000000000000000000010000000010 *!
b1111111111 0!
b00000000000000000000000000000010 1!
b01100 3!
19!
b00000000000000000000000000111100 ;!
b00000000000000000000000000000000 =!
b00000000000000000000000000000000 >!
#170
09!
#175
b00000000000000000000000000111100 $
b00000000000000000000000001000000 %
b00000000000000000000010000111000 &
b0000001111 '
b00000000010100100010100010110011 (
b000000000000000000000000001110000100000000000000000010000001011100000000000000000000000000111100 )
b0010111 ,
b0100000 3
b000 4
b00 6
07
18
b00000000000000000000010000000000 <
b00000000000000000000100000000000 =
b010000000000 >
b01000000000000000000000000000000 ?
b00000000000000000000010000000000 @
b00000 A
b00000 B
b10000 C
b00000000000000000000000001111111 P
b11111111111111111111111000110010 e
b11101111111111111111000000000000 h
b000000000000000000000000001101000000000000000000000000000000000000000000000000000000000000000000111111111111111111111110111111110110111111111011100000100001111111111011111011101111111111111111000000000000111111111111111111111110111111101000011000000000000000000000000000111000 i
b11111111111111111111111111111111000000000000000000000000000000100001110100000000000000000000000000011010000100000000000000000000000000000000001001000000001000101101000000000000 r
b111111111111111111111111111111110000000000000000000000000000000001101100000000000000000000000000000110000000000000000000000000000000000001001000000100000101101000000000000 x
b11111111111111111111111111111111 #!
b0010 $!
b00000000000000000000000000000000 '!
b00000000000000000000000000000000 (!
b00000000000000000000000000000000 )!
b11101111111111111111000000000000 *!
b00000000000000000000000000000000 +!
1,!
0-!
b01101 3!
19!
b00000000000000000000000001000000 ;!
#180
09!
#185
b00000000000000000000000001000000 $
b00000000000000000000000001000100 %
b00000000000000100010100001000000 &
b0000010000 '
b00000000001000100010100100010011 (
b000000000000000000000000001111000000000001010010001010001011001100000000000000000000000001000000 )
b0110011 ,
b00 .
b10 0
b0000000 3
b010 4
b10 6
08
19
b00000000000000000000000000000101 <
b00000000000000000000000000001010 =
b000000000101 >
b00000000010100100010000000000000 ?
b00000000000000100010100000000100 @
b00100 A
b00101 B
b10001 C
b11111111111111111111111111111111 Q
b00000000000000000000100000111000 e
b01000000000000000000000000111000 h
b000000000000000000000000001110000000000000000000000000000000000000000000000000000000000000000000000000000000000000000100000000000010111000010000000000100000000000000100001001000000000000000000000000000000000000000000000000000100000000000100000000000000000000000000000000111100 i
b11101111111111111111000000000000000000000000000000000000000000000001111100000000000000000000000000011100001100000000000000000000000000000000001111101111111111111111000000000000 r
b111111111111111111111111111111110000000000000000000000000000000001110100000000000000000000000000000110100000000000000000000000000000000001001000000001000101101000000000000 x
b00000000000000000000000000111000 )!
b01000000000000000000000000000000 *!
b00000000000000000000000000000000 /!
b0000000000 0!
b00000000000000000000000000000000 1!
b01110 3!
b11 8!
19!
b00000000000000000000000001000100 ;!
b11111111111111111111111111111111 =!
b11111111111111111111111111111111 >!
#190
09!
#195
b00000000000000000000000001000100 $
b00000000000000000000000001001000 %
b00000000000000100010000001000010 &
b0000010001 '
b00000000100001111011100110110011 (
b000000000000000000000000010000000000000000100010001010010001001100000000000000000000000001000100 )
b0010011 ,
b11 .
b00000000000000000000000000000010 <
b00000000000000000000000000000100 =
b000000000010 >
b00000000001000100010000000000000 ?
b00000000000000100010000000000010 @
b00010 B
b10010 C
b11111111111111111111111111111111 R
b00000000000000000000000001000110 e
b00000000000000000000000000000000 h
b000000000000000000000000001111001111111111111111111111111111111111111111111111111111111111111111000000000000000000000000000001010110011010000000000000010000010000101100011000000000010100100010000000000000000000000000001000101000000001000010010000000000000000000000000001000000 i
b01000000000000000000000000111000000000000000000000000000000000000010000100000000000000000000000000011110000000000000000000000000000000000000000001000000000000000000000000000000 r
b111011111111111111110000000000000000000000000000000000000000000001111100000000000000000000000000000111000000000000000000000000000000000001111101111111111111111000000000000 x
b11101111111111111111000000000000 #!
b0110 $!
b11111111111111111111111111111111 '!
b11111111111111111111111111111111 (!
b11111111111111111111111111111111 )!
b11111111111111111111111111111111 *!
b0000001110 0!
b01111 3!
b00 8!
19!
b00000000000000000000000001001000 ;!
b00000000000000000000000000000010 >!
#200
09!
