lab4/wave.vcd
$version Generated by VerilatedVcd $end
$date Tue Jan 14 20:09:49 2025
 $end
$timescale   1ps $end

 $scope module TOP $end
  $var wire  1 o clk $end
  $var wire  1 p reset_b $end
  $scope module single_cycle_cpu $end
   $var wire 32 s DMEM_ADDR_WIDTH [31:0] $end
   $var wire 32 r DMEM_DEPTH [31:0] $end
   $var wire 32 s IMEM_ADDR_WIDTH [31:0] $end
   $var wire 32 r IMEM_DEPTH [31:0] $end
   $var wire 32 t REG_WIDTH [31:0] $end
   $var wire  4 N alu_control [3:0] $end
   $var wire 32 L alu_in1 [31:0] $end
   $var wire 32 M alu_in2 [31:0] $end
   $var wire  2 Y alu_op [1:0] $end
   $var wire 32 O alu_result [31:0] $end
   $var wire  1 Q alu_sign $end
   $var wire  2 X alu_src [1:0] $end
   $var wire  1 P alu_zero $end
   $var wire  6 W branch [5:0] $end
   $var wire  1 o clk $end
   $var wire 32 n comp_result [31:0] $end
   $var wire 10 R dmem_addr [9:0] $end
   $var wire 32 K dmem_din [31:0] $end
   $var wire 32 S dmem_dout [31:0] $end
   $var wire  3 Z funct3 [2:0] $end
   $var wire  7 b funct7 [6:0] $end
   $var wire 10 D imem_addr [9:0] $end
   $var wire 12 e imm12 [11:0] $end
   $var wire 32 c imm32 [31:0] $end
   $var wire 32 g imm32_J [31:0] $end
   $var wire 32 f imm32_U [31:0] $end
   $var wire 32 d imm32_branch [31:0] $end
   $var wire 32 E inst [31:0] $end
   $var wire  1 ^ isAUIPC $end
   $var wire  1 _ isCompare $end
   $var wire  1 ` isJAL $end
   $var wire  1 a isJALR $end
   $var wire  1 ] isLUI $end
   $var wire  1 T mem_read $end
   $var wire  1 T mem_to_reg $end
   $var wire  1 U mem_write $end
   $var wire  1 \ notsigned $end
   $var wire  7 V opcode [6:0] $end
   $var wire 32 h pc_curr [31:0] $end
   $var wire 32 i pc_next [31:0] $end
   $var wire 32 m pc_next_JAL [31:0] $end
   $var wire 32 l pc_next_branch [31:0] $end
   $var wire 32 k pc_next_plus4 [31:0] $end
   $var wire  2 j pc_next_sel [1:0] $end
   $var wire  5 H rd [4:0] $end
   $var wire 32 I rd_din [31:0] $end
   $var wire  1 J reg_write $end
   $var wire  1 p reset_b $end
   $var wire  5 F rs1 [4:0] $end
   $var wire 32 q rs1_dout [31:0] $end
   $var wire  5 G rs2 [4:0] $end
   $var wire 32 K rs2_dout [31:0] $end
   $var wire  2 [ size [1:0] $end
   $scope module u_alu_0 $end
    $var wire 32 t REG_WIDTH [31:0] $end
    $var wire  4 N alu_control [3:0] $end
    $var wire 32 L in1 [31:0] $end
    $var wire 32 M in2 [31:0] $end
    $var wire 32 O result [31:0] $end
    $var wire  1 Q sign $end
    $var wire  1 P zero $end
   $upscope $end
   $scope module u_dmem_0 $end
    $var wire 32 s DMEM_ADDR_WIDTH [31:0] $end
    $var wire 32 r DMEM_DEPTH [31:0] $end
    $var wire 10 R addr [9:0] $end
    $var wire  1 o clk $end
    $var wire 32 K din [31:0] $end
    $var wire 32 S dout [31:0] $end
    $var wire  1 T mem_read $end
    $var wire  1 U mem_write $end
    $var wire  1 \ notsigned $end
    $var wire  2 [ size [1:0] $end
   $upscope $end
   $scope module u_imem_0 $end
    $var wire 32 s IMEM_ADDR_WIDTH [31:0] $end
    $var wire 32 r IMEM_DEPTH [31:0] $end
    $var wire 10 D addr [9:0] $end
    $var wire 32 E dout [31:0] $end
    $scope module unnamedblk1 $end
     $var wire 32 # i [31:0] $end
    $upscope $end
   $upscope $end
   $scope module u_regfile_0 $end
    $var wire 32 t REG_WIDTH [31:0] $end
    $var wire  1 o clk $end
    $var wire  5 H rd [4:0] $end
    $var wire 32 I rd_din [31:0] $end
    $var wire  1 J reg_write $end
    $var wire 32 $ rf_data(0) [31:0] $end
    $var wire 32 % rf_data(1) [31:0] $end
    $var wire 32 . rf_data(10) [31:0] $end
    $var wire 32 / rf_data(11) [31:0] $end
    $var wire 32 0 rf_data(12) [31:0] $end
    $var wire 32 1 rf_data(13) [31:0] $end
    $var wire 32 2 rf_data(14) [31:0] $end
    $var wire 32 3 rf_data(15) [31:0] $end
    $var wire 32 4 rf_data(16) [31:0] $end
    $var wire 32 5 rf_data(17) [31:0] $end
    $var wire 32 6 rf_data(18) [31:0] $end
    $var wire 32 7 rf_data(19) [31:0] $end
    $var wire 32 & rf_data(2) [31:0] $end
    $var wire 32 8 rf_data(20) [31:0] $end
    $var wire 32 9 rf_data(21) [31:0] $end
    $var wire 32 : rf_data(22) [31:0] $end
    $var wire 32 ; rf_data(23) [31:0] $end
    $var wire 32 < rf_data(24) [31:0] $end
    $var wire 32 = rf_data(25) [31:0] $end
    $var wire 32 > rf_data(26) [31:0] $end
    $var wire 32 ? rf_data(27) [31:0] $end
    $var wire 32 @ rf_data(28) [31:0] $end
    $var wire 32 A rf_data(29) [31:0] $end
    $var wire 32 ' rf_data(3) [31:0] $end
    $var wire 32 B rf_data(30) [31:0] $end
    $var wire 32 C rf_data(31) [31:0] $end
    $var wire 32 ( rf_data(4) [31:0] $end
    $var wire 32 ) rf_data(5) [31:0] $end
    $var wire 32 * rf_data(6) [31:0] $end
    $var wire 32 + rf_data(7) [31:0] $end
    $var wire 32 , rf_data(8) [31:0] $end
    $var wire 32 - rf_data(9) [31:0] $end
    $var wire  5 F rs1 [4:0] $end
    $var wire 32 q rs1_dout [31:0] $end
    $var wire  5 G rs2 [4:0] $end
    $var wire 32 K rs2_dout [31:0] $end
   $upscope $end
  $upscope $end
 $upscope $end
$enddefinitions $end


#0
b00000000000000000000010000000000 #
b00000000000000000000000000000000 $
b00000000000000000000000000000000 %
b00000000000000000000000000000000 &
b00000000000000000000000000000000 '
b00000000000000000000000000000000 (
b00000000000000000000000000000000 )
b00000000000000000000000000000000 *
b00000000000000000000000000000000 +
b00000000000000000000000000000000 ,
b00000000000000000000000000000000 -
b00000000000000000000000000000000 .
b00000000000000000000000000000000 /
b00000000000000000000000000000000 0
b00000000000000000000000000000000 1
b00000000000000000000000000000000 2
b00000000000000000000000000000000 3
b00000000000000000000000000000000 4
b00000000000000000000000000000000 5
b00000000000000000000000000000000 6
b00000000000000000000000000000000 7
b00000000000000000000000000000000 8
b00000000000000000000000000000000 9
b00000000000000000000000000000000 :
b00000000000000000000000000000000 ;
b00000000000000000000000000000000 <
b00000000000000000000000000000000 =
b00000000000000000000000000000000 >
b00000000000000000000000000000000 ?
b00000000000000000000000000000000 @
b00000000000000000000000000000000 A
b00000000000000000000000000000000 B
b00000000000000000000000000000000 C
b0000000000 D
b00000000000000000000001000000011 E
b00000 F
b00000 G
b00100 H
b11111111111111111111111111111111 I
1J
b00000000000000000000000000000000 K
b00000000000000000000000000000000 L
b00000000000000000000000000000000 M
b0010 N
b00000000000000000000000000000000 O
1P
0Q
b0000000000 R
b11111111111111111111111111111111 S
1T
0U
b0000011 V
b000000 W
b11 X
b00 Y
b000 Z
b00 [
0\
0]
0^
0_
0`
0a
b0000000 b
b00000000000000000000000000000000 c
b00000000000000000000000000000000 d
b000000000000 e
b00000000000000000000000000000000 f
b00000000000000000000000000000000 g
b00000000000000000000000000000000 h
b00000000000000000000000000000100 i
b00 j
b00000000000000000000000000000100 k
b00000000000000000000000000000000 l
b00000000000000000000000000000000 m
b00000000000000000000000000000000 n
0o
0p
b00000000000000000000000000000000 q
b00000000000000000000010000000000 r
b00000000000000000000000000001010 s
b00000000000000000000000000100000 t
#5
b11111111111111111111111111111111 (
1o
#10
0o
#15
b0000000001 D
b00000000010000000001001010000011 E
b00100 G
b00101 H
b11111111111111111111111111111111 K
b00000000000000000000000000000100 M
b00000000000000000000000000000100 O
0P
b0000000001 R
b001 Z
b01 [
b00000000000000000000000000000100 c
b00000000000000000000000000001000 d
b000000000100 e
b00000000010000000001000000000000 f
b00000000000000000001000000000100 g
b00000000000000000000000000000100 h
b00000000000000000000000000001000 i
b00000000000000000000000000001000 k
b00000000000000000000000000001100 l
b00000000000000000001000000001000 m
1o
1p
#20
0o
#25
b11111111111111111111111111111111 )
b0000000010 D
b00000000000000000100001100000011 E
b00000 G
b00110 H
b00000000000000000000000011111111 I
b00000000000000000000000000000000 K
b00000000000000000000000000000000 M
b00000000000000000000000000000000 O
1P
b0000000000 R
b00000000000000000000000011111111 S
b100 Z
b00 [
1\
b00000000000000000000000000000000 c
b00000000000000000000000000000000 d
b000000000000 e
b00000000000000000100000000000000 f
b00000000000000000100000000000000 g
b00000000000000000000000000001000 h
b00000000000000000000000000001100 i
b00000000000000000000000000001100 k
b00000000000000000000000000001000 l
b00000000000000000100000000001000 m
1o
#30
0o
#35
b00000000000000000000000011111111 *
b0000000011 D
b00000000010000000101001110000011 E
b00100 G
b00111 H
b00000000000000001111111111111111 I
b11111111111111111111111111111111 K
b00000000000000000000000000000100 M
b00000000000000000000000000000100 O
0P
b0000000001 R
b00000000000000001111111111111111 S
b101 Z
b01 [
b00000000000000000000000000000100 c
b00000000000000000000000000001000 d
b000000000100 e
b00000000010000000101000000000000 f
b00000000000000000101000000000100 g
b00000000000000000000000000001100 h
b00000000000000000000000000010000 i
b00000000000000000000000000010000 k
b00000000000000000000000000010100 l
b00000000000000000101000000010000 m
1o
#40
0o
#45
b00000000000000001111111111111111 +
b0000000100 D
b00000000010000000000000000100011 E
b00000 H
b00000000000000000000000000000000 I
0J
b00000000000000000000000000000000 M
b00000000000000000000000000000000 O
1P
b0000000000 R
b00000000000000000000000000000000 S
0T
1U
b0100011 V
b000 Z
b00 [
0\
b00000000000000000000000000000000 c
b00000000000000000000000000000000 d
b000000000000 e
b00000000010000000000000000000000 f
b00000000000000000000000000000100 g
b00000000000000000000000000010000 h
b00000000000000000000000000010100 i
b00000000000000000000000000010100 k
b00000000000000000000000000010000 l
b00000000000000000000000000010100 m
1o
#50
0o
#55
b0000000101 D
b00000000010100000001000000100011 E
b00101 G
b001 Z
b01 [
b00000000010100000001000000000000 f
b00000000000000000001100000000100 g
b00000000000000000000000000010100 h
b00000000000000000000000000011000 i
b00000000000000000000000000011000 k
b00000000000000000000000000010100 l
b00000000000000000001100000011000 m
1o
#60
0o
#65
b0000000110 D
b00000000100000000010010000000011 E
b01000 G
b01000 H
b00000000000000000000000000000010 I
1J
b00000000000000000000000000000000 K
b00000000000000000000000000001000 M
b00000000000000000000000000001000 O
0P
b0000000010 R
b00000000000000000000000000000010 S
1T
0U
b0000011 V
b010 Z
b10 [
b00000000000000000000000000001000 c
b00000000000000000000000000010000 d
b000000001000 e
b00000000100000000010000000000000 f
b00000000000000000010000000001000 g
b00000000000000000000000000011000 h
b00000000000000000000000000011100 i
b00000000000000000000000000011100 k
b00000000000000000000000000101000 l
b00000000000000000010000000100000 m
1o
#70
0o
#75
b00000000000000000000000000000010 ,
b0000000111 D
b00000000100000110001010010110011 E
b00110 F
b01001 H
b00000000000000000000001111111100 I
b00000000000000000000000000000010 K
b00000000000000000000000011111111 L
b00000000000000000000000000000010 M
b0111 N
b00000000000000000000001111111100 O
b0011111111 R
b00000000000000000000000000000000 S
0T
b0110011 V
b00 X
b10 Y
b001 Z
b01 [
b00000000100000110001000000000000 f
b00000000000000110001000000001000 g
b00000000000000000000000000011100 h
b00000000000000000000000000100000 i
b00000000000000000000000000100000 k
b00000000000000000000000000101100 l
b00000000000000110001000000100100 m
1o
b00000000000000000000000011111111 q
#80
0o
#85
b00000000000000000000001111111100 -
b0000001000 D
b00000000001100110001010100010011 E
b00011 G
b01010 H
b00000000000000000000011111111000 I
b00000000000000000000000000000000 K
b00000000000000000000000000000011 M
b00000000000000000000011111111000 O
b0111111110 R
b0010011 V
b11 X
b00000000000000000000000000000011 c
b00000000000000000000000000000110 d
b000000000011 e
b00000000001100110001000000000000 f
b00000000000000110001100000000010 g
b00000000000000000000000000100000 h
b00000000000000000000000000100100 i
b00000000000000000000000000100100 k
b00000000000000000000000000100110 l
b00000000000000110001100000100010 m
1o
#90
0o
#95
b00000000000000000000011111111000 .
b0000001001 D
b00000000100000110101010110110011 E
b01000 G
b01011 H
b00000000000000000000000000111111 I
b00000000000000000000000000000010 K
b00000000000000000000000000000010 M
b1001 N
b00000000000000000000000000111111 O
b0000001111 R
b0110011 V
b00 X
b101 Z
b00000000000000000000000000001000 c
b00000000000000000000000000010000 d
b000000001000 e
b00000000100000110101000000000000 f
b00000000000000110101000000001000 g
b00000000000000000000000000100100 h
b00000000000000000000000000101000 i
b00000000000000000000000000101000 k
b00000000000000000000000000110100 l
b00000000000000110101000000101100 m
1o
#100
0o
#105
b00000000000000000000000000111111 /
b0000001010 D
b00000000000100110101011000010011 E
b00001 G
b01100 H
b00000000000000000000000001111111 I
b00000000000000000000000000000000 K
b00000000000000000000000000000001 M
b00000000000000000000000001111111 O
b0000011111 R
b0010011 V
b11 X
b00000000000000000000000000000001 c
b00000000000000000000000000000010 d
b000000000001 e
b00000000000100110101000000000000 f
b00000000000000110101100000000000 g
b00000000000000000000000000101000 h
b00000000000000000000000000101100 i
b00000000000000000000000000101100 k
b00000000000000000000000000101010 l
b00000000000000110101100000101000 m
1o
#110
0o
#115
b00000000000000000000000001111111 0
b0000001011 D
b01000000100000101101011010110011 E
b00101 F
b01000 G
b01101 H
b11111111111111111111111111111111 I
b00000000000000000000000000000010 K
b11111111111111111111111111111111 L
b00000000000000000000000000000010 M
b1011 N
b11111111111111111111111111111111 O
1Q
b1111111111 R
b0110011 V
b00 X
b0100000 b
b00000000000000000000010000001000 c
b00000000000000000000100000010000 d
b010000001000 e
b01000000100000101101000000000000 f
b00000000000000101101010000001000 g
b00000000000000000000000000101100 h
b00000000000000000000000000110000 i
b00000000000000000000000000110000 k
b00000000000000000000100000111100 l
b00000000000000101101010000110100 m
b00000000000000000000000000000001 n
1o
b11111111111111111111111111111111 q
#120
0o
#125
b11111111111111111111111111111111 1
b0000001100 D
b01000000001000101101011100010011 E
b00010 G
b01110 H
b00000000000000000000000000000000 K
b00000000000000000000010000000010 M
b0010011 V
b11 X
b00000000000000000000010000000010 c
b00000000000000000000100000000100 d
b010000000010 e
b01000000001000101101000000000000 f
b00000000000000101101010000000010 g
b00000000000000000000000000110000 h
b00000000000000000000000000110100 i
b00000000000000000000000000110100 k
b00000000000000000000100000110100 l
b00000000000000101101010000110010 m
1o
#130
0o
#135
b11111111111111111111111111111111 2
b0000001101 D
b11101111111111111111011110110111 E
b11111 F
b11111 G
b01111 H
b11101111111111111111000000000000 I
b00000000000000000000000000000000 L
b11101111111111111111000000000000 M
b0010 N
b11101111111111111111000000000000 O
b0000000000 R
b0110111 V
b01 X
b00 Y
b111 Z
b11 [
1]
b1110111 b
b11111111111111111111111011111111 c
b11111111111111111111110111111110 d
b111011111111 e
b11101111111111111111000000000000 f
b11111111111111111111111011111110 g
b00000000000000000000000000110100 h
b00000000000000000000000000111000 i
b00000000000000000000000000111000 k
b11111111111111111111111000110010 l
b11111111111111111111111100110010 m
1o
b00000000000000000000000000000000 q
#140
0o
#145
b11101111111111111111000000000000 3
b0000001110 D
b01000000000000000000100000010111 E
b00000 F
b00000 G
b10000 H
b01000000000000000000000000111000 I
b00000000000000000000000000111000 L
b01000000000000000000000000000000 M
b01000000000000000000000000111000 O
0Q
b0000001110 R
b0010111 V
b000 Z
b00 [
0]
1^
b0100000 b
b00000000000000000000010000000000 c
b00000000000000000000100000000000 d
b010000000000 e
b01000000000000000000000000000000 f
b00000000000000000000010000000000 g
b00000000000000000000000000111000 h
b00000000000000000000000000111100 i
b00000000000000000000000000111100 k
b00000000000000000000100000111000 l
b00000000000000000000010000111000 m
b00000000000000000000000000000000 n
1o
#150
0o
#155
b01000000000000000000000000111000 4
b0000001111 D
b00000000010100100010100010110011 E
b00100 F
b00101 G
b10001 H
b00000000000000000000000000000000 I
b11111111111111111111111111111111 K
b11111111111111111111111111111111 L
b11111111111111111111111111111111 M
b0110 N
b00000000000000000000000000000000 O
1P
b0000000000 R
b0110011 V
b00 X
b10 Y
b010 Z
b10 [
0^
1_
b0000000 b
b00000000000000000000000000000101 c
b00000000000000000000000000001010 d
b000000000101 e
b00000000010100100010000000000000 f
b00000000000000100010100000000100 g
b00000000000000000000000000111100 h
b00000000000000000000000001000000 i
b00000000000000000000000001000000 k
b00000000000000000000000001000110 l
b00000000000000100010100001000000 m
1o
b11111111111111111111111111111111 q
#160
0o
#165
b0000010000 D
b00000000001000100010100100010011 E
b00010 G
b10010 H
b00000000000000000000000000000001 I
b00000000000000000000000000000000 K
b00000000000000000000000000000010 M
b11111111111111111111111111111101 O
0P
1Q
b1111111111 R
b0010011 V
b11 X
b00000000000000000000000000000010 c
b00000000000000000000000000000100 d
b000000000010 e
b00000000001000100010000000000000 f
b00000000000000100010000000000010 g
b00000000000000000000000001000000 h
b00000000000000000000000001000100 i
b00000000000000000000000001000100 k
b00000000000000000000000001000100 l
b00000000000000100010000001000010 m
b00000000000000000000000000000001 n
1o
#170
0o
#175
b00000000000000000000000000000001 6
b0000010001 D
b00000000100001111011100110110011 E
b01111 F
b01000 G
b10011 H
b00000000000000000000000000000000 I
b00000000000000000000000000000010 K
b11101111111111111111000000000000 L
b1110 N
b00000000000000000000000000000000 O
1P
0Q
b0000000000 R
b0110011 V
b00 X
b011 Z
b11 [
1\
b00000000000000000000000000001000 c
b00000000000000000000000000010000 d
b000000001000 e
b00000000100001111011000000000000 f
b00000000000001111011000000001000 g
b00000000000000000000000001000100 h
b00000000000000000000000001001000 i
b00000000000000000000000001001000 k
b00000000000000000000000001010100 l
b00000000000001111011000001001100 m
b00000000000000000000000000000000 n
1o
b11101111111111111111000000000000 q
#180
0o
#185
b0000010010 D
b00000000001001111011101000010011 E
b00010 G
b10100 H
b00000000000000000000000000000000 K
b0010011 V
b11 X
b00000000000000000000000000000010 c
b00000000000000000000000000000100 d
b000000000010 e
b00000000001001111011000000000000 f
b00000000000001111011000000000010 g
b00000000000000000000000001001000 h
b00000000000000000000000001001100 i
b00000000000000000000000001001100 k
b00000000000000000000000001001100 l
b00000000000001111011000001001010 m
1o
#190
0o
#195
b0000010011 D
b00000011100000000000101010010011 E
b00000 F
b11000 G
b10101 H
b00000000000000000000000000111000 I
b00000000000000000000000000000000 L
b00000000000000000000000000111000 M
b0010 N
b00000000000000000000000000111000 O
0P
b0000001110 R
b000 Z
b00 [
0\
0_
b0000001 b
b00000000000000000000000000111000 c
b00000000000000000000000001110000 d
b000000111000 e
b00000011100000000000000000000000 f
b00000000000000000000000000111000 g
b00000000000000000000000001001100 h
b00000000000000000000000001010000 i
b00000000000000000000000001010000 k
b00000000000000000000000010111100 l
b00000000000000000000000010000100 m
1o
b00000000000000000000000000000000 q
#200
0o
#205
b00000000000000000000000000111000 9
b0000010100 D
b00000000100000000000101101101111 E
b01000 G
b10110 H
b00000000000000000000000001010100 I
b00000000000000000000000000000010 K
b00000000000000000000000000000010 M
b00000000000000000000000000000010 O
b0000000000 R
b1101111 V
b00 X
b00 Y
1`
b0000000 b
b00000000000000000000000000001000 c
b00000000000000000000000000010000 d
b000000001000 e
b00000000100000000000000000000000 f
b00000000000000000000000000001000 g
b00000000000000000000000001010000 h
b00000000000000000000000001011000 i
b10 j
b00000000000000000000000001010100 k
b00000000000000000000000001100000 l
b00000000000000000000000001011000 m
1o
#210
0o
#215
b00000000000000000000000001010100 :
b0000010110 D
b00000010100010101000101111100111 E
b10101 F
b10111 H
b00000000000000000000000001011100 I
b00000000000000000000000000111000 L
b00000000000000000000000000101000 M
b00000000000000000000000001100000 O
b0000011000 R
b1100111 V
b11 X
b10 Y
0`
1a
b0000001 b
b00000000000000000000000000101000 c
b00000000000000000000000001010000 d
b000000101000 e
b00000010100010101000000000000000 f
b00000000000010101000000000101000 g
b00000000000000000000000001011000 h
b00000000000000000000000001100000 i
b01 j
b00000000000000000000000001011100 k
b00000000000000000000000010101000 l
b00000000000010101000000010000000 m
1o
b00000000000000000000000000111000 q
#220
0o
#225
b00000000000000000000000001011100 ;
b0000011000 D
b11111110100001111110110011100011 E
b01111 F
b11001 H
b00000000000000000000000000000000 I
0J
b11101111111111111111000000000000 L
b00000000000000000000000000000010 M
b1110 N
b00000000000000000000000000000000 O
1P
b0000000000 R
b1100011 V
b010000 W
b00 X
b01 Y
b110 Z
b10 [
1\
0a
b1111111 b
b11111111111111111111111111111100 c
b11111111111111111111111111111000 d
b111111111100 e
b11111110100001111110000000000000 f
b11111111111101111110011111101000 g
b00000000000000000000000001100000 h
b00000000000000000000000001100100 i
b00 j
b00000000000000000000000001100100 k
b00000000000000000000000001011000 l
b11111111111101111110100001001000 m
1o
b11101111111111111111000000000000 q
#230
0o
#235
b0000011001 D
b11111110100001111111110011100011 E
b100000 W
b111 Z
b11 [
b11111110100001111111000000000000 f
b11111111111101111111011111101000 g
b00000000000000000000000001100100 h
b00000000000000000000000001011100 i
b11 j
b00000000000000000000000001101000 k
b00000000000000000000000001011100 l
b11111111111101111111100001001100 m
1o
#240
0o
#245
b0000010111 D
b00000011100000000000101010010011 E
b00000 F
b11000 G
b10101 H
b00000000000000000000000000111000 I
1J
b00000000000000000000000000000000 K
b00000000000000000000000000000000 L
b00000000000000000000000000111000 M
b0010 N
b00000000000000000000000000111000 O
0P
b0000001110 R
b0010011 V
b000000 W
b11 X
b10 Y
b000 Z
b00 [
0\
b0000001 b
b00000000000000000000000000111000 c
b00000000000000000000000001110000 d
b000000111000 e
b00000011100000000000000000000000 f
b00000000000000000000000000111000 g
b00000000000000000000000001011100 h
b00000000000000000000000001100000 i
b00 j
b00000000000000000000000001100000 k
b00000000000000000000000011001100 l
b00000000000000000000000010010100 m
1o
b00000000000000000000000000000000 q
#250
0o
#255
b0000011000 D
b11111110100001111110110011100011 E
b01111 F
b01000 G
b11001 H
b00000000000000000000000000000000 I
0J
b00000000000000000000000000000010 K
b11101111111111111111000000000000 L
b00000000000000000000000000000010 M
b1110 N
b00000000000000000000000000000000 O
1P
b0000000000 R
b1100011 V
b010000 W
b00 X
b01 Y
b110 Z
b10 [
1\
b1111111 b
b11111111111111111111111111111100 c
b11111111111111111111111111111000 d
b111111111100 e
b11111110100001111110000000000000 f
b11111111111101111110011111101000 g
b00000000000000000000000001100000 h
b00000000000000000000000001100100 i
b00000000000000000000000001100100 k
b00000000000000000000000001011000 l
b11111111111101111110100001001000 m
1o
b11101111111111111111000000000000 q
#260
0o
#265
b0000011001 D
b11111110100001111111110011100011 E
b100000 W
b111 Z
b11 [
b11111110100001111111000000000000 f
b11111111111101111111011111101000 g
b00000000000000000000000001100100 h
b00000000000000000000000001011100 i
b11 j
b00000000000000000000000001101000 k
b00000000000000000000000001011100 l
b11111111111101111111100001001100 m
1o
#270
0o
#275
b0000010111 D
b00000011100000000000101010010011 E
b00000 F
b11000 G
b10101 H
b00000000000000000000000000111000 I
1J
b00000000000000000000000000000000 K
b00000000000000000000000000000000 L
b00000000000000000000000000111000 M
b0010 N
b00000000000000000000000000111000 O
0P
b0000001110 R
b0010011 V
b000000 W
b11 X
b10 Y
b000 Z
b00 [
0\
b0000001 b
b00000000000000000000000000111000 c
b00000000000000000000000001110000 d
b000000111000 e
b00000011100000000000000000000000 f
b00000000000000000000000000111000 g
b00000000000000000000000001011100 h
b00000000000000000000000001100000 i
b00 j
b00000000000000000000000001100000 k
b00000000000000000000000011001100 l
b00000000000000000000000010010100 m
1o
b00000000000000000000000000000000 q
#280
0o
#285
b0000011000 D
b11111110100001111110110011100011 E
b01111 F
b01000 G
b11001 H
b00000000000000000000000000000000 I
0J
b00000000000000000000000000000010 K
b11101111111111111111000000000000 L
b00000000000000000000000000000010 M
b1110 N
b00000000000000000000000000000000 O
1P
b0000000000 R
b1100011 V
b010000 W
b00 X
b01 Y
b110 Z
b10 [
1\
b1111111 b
b11111111111111111111111111111100 c
b11111111111111111111111111111000 d
b111111111100 e
b11111110100001111110000000000000 f
b11111111111101111110011111101000 g
b00000000000000000000000001100000 h
b00000000000000000000000001100100 i
b00000000000000000000000001100100 k
b00000000000000000000000001011000 l
b11111111111101111110100001001000 m
1o
b11101111111111111111000000000000 q
#290
0o
#295
b0000011001 D
b11111110100001111111110011100011 E
b100000 W
b111 Z
b11 [
b11111110100001111111000000000000 f
b11111111111101111111011111101000 g
b00000000000000000000000001100100 h
b00000000000000000000000001011100 i
b11 j
b00000000000000000000000001101000 k
b00000000000000000000000001011100 l
b11111111111101111111100001001100 m
1o
#300
0o
#305
b0000010111 D
b00000011100000000000101010010011 E
b00000 F
b11000 G
b10101 H
b00000000000000000000000000111000 I
1J
b00000000000000000000000000000000 K
b00000000000000000000000000000000 L
b00000000000000000000000000111000 M
b0010 N
b00000000000000000000000000111000 O
0P
b0000001110 R
b0010011 V
b000000 W
b11 X
b10 Y
b000 Z
b00 [
0\
b0000001 b
b00000000000000000000000000111000 c
b00000000000000000000000001110000 d
b000000111000 e
b00000011100000000000000000000000 f
b00000000000000000000000000111000 g
b00000000000000000000000001011100 h
b00000000000000000000000001100000 i
b00 j
b00000000000000000000000001100000 k
b00000000000000000000000011001100 l
b00000000000000000000000010010100 m
1o
b00000000000000000000000000000000 q
#310
0o
#315
b0000011000 D
b11111110100001111110110011100011 E
b01111 F
b01000 G
b11001 H
b00000000000000000000000000000000 I
0J
b00000000000000000000000000000010 K
b11101111111111111111000000000000 L
b00000000000000000000000000000010 M
b1110 N
b00000000000000000000000000000000 O
1P
b0000000000 R
b1100011 V
b010000 W
b00 X
b01 Y
b110 Z
b10 [
1\
b1111111 b
b11111111111111111111111111111100 c
b11111111111111111111111111111000 d
b111111111100 e
b11111110100001111110000000000000 f
b11111111111101111110011111101000 g
b00000000000000000000000001100000 h
b00000000000000000000000001100100 i
b00000000000000000000000001100100 k
b00000000000000000000000001011000 l
b11111111111101111110100001001000 m
1o
b11101111111111111111000000000000 q
#320
0o
#325
b0000011001 D
b11111110100001111111110011100011 E
b100000 W
b111 Z
b11 [
b11111110100001111111000000000000 f
b11111111111101111111011111101000 g
b00000000000000000000000001100100 h
b00000000000000000000000001011100 i
b11 j
b00000000000000000000000001101000 k
b00000000000000000000000001011100 l
b11111111111101111111100001001100 m
1o
#330
0o
#335
b0000010111 D
b00000011100000000000101010010011 E
b00000 F
b11000 G
b10101 H
b00000000000000000000000000111000 I
1J
b00000000000000000000000000000000 K
b00000000000000000000000000000000 L
b00000000000000000000000000111000 M
b0010 N
b00000000000000000000000000111000 O
0P
b0000001110 R
b0010011 V
b000000 W
b11 X
b10 Y
b000 Z
b00 [
0\
b0000001 b
b00000000000000000000000000111000 c
b00000000000000000000000001110000 d
b000000111000 e
b00000011100000000000000000000000 f
b00000000000000000000000000111000 g
b00000000000000000000000001011100 h
b00000000000000000000000001100000 i
b00 j
b00000000000000000000000001100000 k
b00000000000000000000000011001100 l
b00000000000000000000000010010100 m
1o
b00000000000000000000000000000000 q
#340
0o
#345
b0000011000 D
b11111110100001111110110011100011 E
b01111 F
b01000 G
b11001 H
b00000000000000000000000000000000 I
0J
b00000000000000000000000000000010 K
b11101111111111111111000000000000 L
b00000000000000000000000000000010 M
b1110 N
b00000000000000000000000000000000 O
1P
b0000000000 R
b1100011 V
b010000 W
b00 X
b01 Y
b110 Z
b10 [
1\
b1111111 b
b11111111111111111111111111111100 c
b11111111111111111111111111111000 d
b111111111100 e
b11111110100001111110000000000000 f
b11111111111101111110011111101000 g
b00000000000000000000000001100000 h
b00000000000000000000000001100100 i
b00000000000000000000000001100100 k
b00000000000000000000000001011000 l
b11111111111101111110100001001000 m
1o
b11101111111111111111000000000000 q
#350
0o
#355
b0000011001 D
b11111110100001111111110011100011 E
b100000 W
b111 Z
b11 [
b11111110100001111111000000000000 f
b11111111111101111111011111101000 g
b00000000000000000000000001100100 h
b00000000000000000000000001011100 i
b11 j
b00000000000000000000000001101000 k
b00000000000000000000000001011100 l
b11111111111101111111100001001100 m
1o
#360
0o
#365
b0000010111 D
b00000011100000000000101010010011 E
b00000 F
b11000 G
b10101 H
b00000000000000000000000000111000 I
1J
b00000000000000000000000000000000 K
b00000000000000000000000000000000 L
b00000000000000000000000000111000 M
b0010 N
b00000000000000000000000000111000 O
0P
b0000001110 R
b0010011 V
b000000 W
b11 X
b10 Y
b000 Z
b00 [
0\
b0000001 b
b00000000000000000000000000111000 c
b00000000000000000000000001110000 d
b000000111000 e
b00000011100000000000000000000000 f
b00000000000000000000000000111000 g
b00000000000000000000000001011100 h
b00000000000000000000000001100000 i
b00 j
b00000000000000000000000001100000 k
b00000000000000000000000011001100 l
b00000000000000000000000010010100 m
1o
b00000000000000000000000000000000 q
#370
0o
#375
b0000011000 D
b11111110100001111110110011100011 E
b01111 F
b01000 G
b11001 H
b00000000000000000000000000000000 I
0J
b00000000000000000000000000000010 K
b11101111111111111111000000000000 L
b00000000000000000000000000000010 M
b1110 N
b00000000000000000000000000000000 O
1P
b0000000000 R
b1100011 V
b010000 W
b00 X
b01 Y
b110 Z
b10 [
1\
b1111111 b
b11111111111111111111111111111100 c
b11111111111111111111111111111000 d
b111111111100 e
b11111110100001111110000000000000 f
b11111111111101111110011111101000 g
b00000000000000000000000001100000 h
b00000000000000000000000001100100 i
b00000000000000000000000001100100 k
b00000000000000000000000001011000 l
b11111111111101111110100001001000 m
1o
b11101111111111111111000000000000 q
#380
0o
#385
b0000011001 D
b11111110100001111111110011100011 E
b100000 W
b111 Z
b11 [
b11111110100001111111000000000000 f
b11111111111101111111011111101000 g
b00000000000000000000000001100100 h
b00000000000000000000000001011100 i
b11 j
b00000000000000000000000001101000 k
b00000000000000000000000001011100 l
b11111111111101111111100001001100 m
1o
#390
0o
